…
## x列とy列にして、long-formatに変換
```R
anscombe %>% 
    pivot_longer(
        everything(),
        names_to = c('.value', 'group'),
        names_sep = 1L,
        names_transform = list(group = as.integer))

#> # A tibble: 44 × 3
#>    group     x     y
#>    <int> <dbl> <dbl>
#>  1     1    10  8.04
#>  2     2    10  9.14
#>  3     3    10  7.46
#>  4     4     8  6.58
#>  5     1     8  6.95
#>  6     2     8  8.14
#>  7     3     8  6.77
#>  8     4     8  5.76
#>  9     1    13  7.58
#> 10     2    13  8.74
#> # … with 34 more rows
```
…
